%!PS-Adobe-3.0 EPSF-3.0
%%BoundingBox: 79 287 481 649
%%Creator: nadine with JaxoDraw-2.1-0
%%Title: 
%%CreationDate: 2/3/2018
%%BeginProlog
/imStr 0 def /imageSrc {currentfile /ASCII85Decode filter /RunLengthDecode filter  imStr readstring pop } def
/BD {bind def} bind def
/D {def} BD
/C {curveto} BD
/L {lineto} BD
/M {moveto} BD
/R {grestore} BD
/G {gsave} BD
/N {newpath} BD
/P {closepath} BD
/EC {eoclip} BD
/WC {clip} BD
/EF {eofill} BD
/WF {fill} BD
/SG {setgray} BD
/SC {setrgbcolor} BD
/ISOF {
     dup findfont dup length 1 add dict begin {
             1 index /FID eq {pop pop} {D} ifelse
     } forall /Encoding ISOLatin1Encoding D
     currentdict end definefont
} BD
/NZ {dup 1 lt {pop 1} if} BD
/S {
     moveto 1 index stringwidth pop NZ sub
     1 index length 1 sub NZ div 0
     3 2 roll ashow newpath} BD
/FL [
    /AvantGarde-Book ISOF
    /AvantGarde-BookOblique ISOF
    /AvantGarde-Demi ISOF
    /AvantGarde-DemiOblique ISOF
    /Bookman-Demi ISOF
    /Bookman-DemiItalic ISOF
    /Bookman-Light ISOF
    /Bookman-LightItalic ISOF
    /Courier ISOF
    /Courier-Bold ISOF
    /Courier-BoldOblique ISOF
    /Courier-Oblique ISOF
    /Helvetica ISOF
    /Helvetica-Bold ISOF
    /Helvetica-BoldOblique ISOF
    /Helvetica-Narrow ISOF
    /Helvetica-Narrow-Bold ISOF
    /Helvetica-Narrow-BoldOblique ISOF
    /Helvetica-Narrow-Oblique ISOF
    /Helvetica-Oblique ISOF
    /NewCenturySchlbk-Bold ISOF
    /NewCenturySchlbk-BoldItalic ISOF
    /NewCenturySchlbk-Italic ISOF
    /NewCenturySchlbk-Roman ISOF
    /Palatino-Bold ISOF
    /Palatino-BoldItalic ISOF
    /Palatino-Italic ISOF
    /Palatino-Roman ISOF
    /Symbol findfont
    /Times-Bold ISOF
    /Times-BoldItalic ISOF
    /Times-Italic ISOF
    /Times-Roman ISOF
    /ZapfDingbats findfont
    /ZapfChancery-MediumItalic ISOF
] D
/F {
     FL exch get exch scalefont
     [1 0 0 -1 0 0] makefont setfont} BD
%%EndProlog
%%BeginSetup
<< /PageSize [612.0 792.0] /DeferredMediaSelection true /ImagingBBox null /ManualFeed false /NumCopies 1 >> pop 
%%EndSetup
%%Page: 1 1
/pgSave save def
792.0 0 exch translate 1 -1 scale[72 300 div 0 0 72 300 div 0 0]concat
0.8 0.0 0.0  SC
G
[4.1666665 0.0 0.0 4.1666665 300.0 300.0] concat
N
0.0 0.0 M
468.0 0.0 L
468.0 648.0 L
0.0 648.0 L
0.0 0.0 L
P
WC
N
327.215 424.62 M
327.215 424.62 L
207.215 272.62 L
206.595 271.835 L
208.165 270.595 L
208.785 271.38 L
328.785 423.38 L
329.405 424.165 L
327.835 425.405 L
P
G
WC
WF
R N
N
331.098 427.924 M
321.762 422.554 L
326.141 421.645 L
328.041 417.597 L
P
G
WC
WF
R N
N
330.849 428.358 M
330.849 428.358 L
321.513 422.988 L
320.373 422.332 L
321.661 422.065 L
326.039 421.156 L
326.141 421.645 L
325.688 421.433 L
327.589 417.385 L
328.148 416.194 L
328.521 417.455 L
331.578 427.783 L
331.932 428.981 L
330.849 428.358 L
331.348 427.491 M
331.098 427.924 L
330.619 428.066 L
327.562 417.739 L
328.041 417.597 L
328.494 417.809 L
326.594 421.858 L
326.487 422.084 L
326.243 422.135 L
321.864 423.044 L
321.762 422.554 L
322.012 422.121 L
331.348 427.491 L
P
G
WC
WF
R N
N
32.0 271.0 M
32.0 271.0 L
176.0 271.0 L
177.0 271.0 L
177.0 273.0 L
176.0 273.0 L
32.0 273.0 L
31.0 273.0 L
31.0 271.0 L
P
G
WC
WF
R N
N
181.0 272.0 M
171.0 276.0 L
173.0 272.0 L
171.0 268.0 L
P
G
WC
WF
R N
N
181.186 272.464 M
181.186 272.464 L
171.186 276.464 L
169.965 276.953 L
170.553 275.776 L
172.553 271.776 L
173.0 272.0 L
172.553 272.224 L
170.553 268.224 L
169.965 267.047 L
171.186 267.536 L
181.186 271.536 L
182.346 272.0 L
181.186 272.464 L
180.814 271.536 M
181.0 272.0 L
180.814 272.464 L
170.814 268.464 L
171.0 268.0 L
171.447 267.776 L
173.447 271.776 L
173.559 272.0 L
173.447 272.224 L
171.447 276.224 L
171.0 276.0 L
170.814 275.536 L
180.814 271.536 L
P
G
WC
WF
R N
N
240.0 271.0 M
240.0 271.0 L
400.0 271.0 L
401.0 271.0 L
401.0 273.0 L
400.0 273.0 L
240.0 273.0 L
239.0 273.0 L
239.0 271.0 L
P
G
WC
WF
R N
N
235.0 272.0 M
245.0 268.0 L
243.0 272.0 L
245.0 276.0 L
P
G
WC
WF
R N
N
234.814 271.536 M
234.814 271.536 L
244.814 267.536 L
246.035 267.047 L
245.447 268.224 L
243.447 272.224 L
243.0 272.0 L
243.447 271.776 L
245.447 275.776 L
246.035 276.953 L
244.814 276.464 L
234.814 272.464 L
233.654 272.0 L
234.814 271.536 L
235.186 272.464 M
235.0 272.0 L
235.186 271.536 L
245.186 275.536 L
245.0 276.0 L
244.553 276.224 L
242.553 272.224 L
242.441 272.0 L
242.553 271.776 L
244.553 267.776 L
245.0 268.0 L
245.186 268.464 L
235.186 272.464 L
P
G
WC
WF
R N
0.88235295 SG
N
62.0 279.0 M
62.0 296.673 54.837 311.0 46.0 311.0 C
37.163 311.0 30.0 296.673 30.0 279.0 C
30.0 261.327 37.163 247.0 46.0 247.0 C
54.837 247.0 62.0 261.327 62.0 279.0 C
P
G
WC
WF
R N
0.0 SG
N
62.5 279.0 M
62.5 279.0 L
62.5 296.603 55.362 311.5 46.0 311.5 C
46.0 311.0 L
46.0 311.5 L
36.638 311.5 29.5 296.603 29.5 279.0 C
30.0 279.0 L
29.5 279.0 L
29.5 261.397 36.638 246.5 46.0 246.5 C
46.0 247.0 L
46.0 246.5 L
55.362 246.5 62.5 261.397 62.5 279.0 C
62.0 279.0 L
62.5 279.0 L
61.5 279.0 M
61.5 279.0 L
61.5 261.256 54.311 247.5 46.0 247.5 C
46.0 247.5 L
37.689 247.5 30.5 261.256 30.5 279.0 C
30.5 279.0 L
30.5 296.744 37.689 310.5 46.0 310.5 C
46.0 310.5 L
54.311 310.5 61.5 296.744 61.5 279.0 C
P
G
WC
WF
R N
0.88235295 SG
N
403.0 280.0 M
403.0 297.673 395.837 312.0 387.0 312.0 C
378.163 312.0 371.0 297.673 371.0 280.0 C
371.0 262.327 378.163 248.0 387.0 248.0 C
395.837 248.0 403.0 262.327 403.0 280.0 C
P
G
WC
WF
R N
0.0 SG
N
403.5 280.0 M
403.5 280.0 L
403.5 297.603 396.362 312.5 387.0 312.5 C
387.0 312.0 L
387.0 312.5 L
377.638 312.5 370.5 297.603 370.5 280.0 C
371.0 280.0 L
370.5 280.0 L
370.5 262.397 377.638 247.5 387.0 247.5 C
387.0 248.0 L
387.0 247.5 L
396.362 247.5 403.5 262.397 403.5 280.0 C
403.0 280.0 L
403.5 280.0 L
402.5 280.0 M
402.5 280.0 L
402.5 262.256 395.311 248.5 387.0 248.5 C
387.0 248.5 L
378.689 248.5 371.5 262.256 371.5 280.0 C
371.5 280.0 L
371.5 297.744 378.689 311.5 387.0 311.5 C
387.0 311.5 L
395.311 311.5 402.5 297.744 402.5 280.0 C
P
G
WC
WF
R N
0.8 0.0 0.0  SC
N
240.0 272.0 M
240.0 276.418 225.673 280.0 208.0 280.0 C
190.327 280.0 176.0 276.418 176.0 272.0 C
176.0 267.582 190.327 264.0 208.0 264.0 C
225.673 264.0 240.0 267.582 240.0 272.0 C
P
G
WC
WF
R N
0.0 SG
N
240.5 272.0 M
240.5 272.0 L
240.5 277.045 225.33 280.5 208.0 280.5 C
208.0 280.0 L
208.0 280.5 L
190.67 280.5 175.5 277.045 175.5 272.0 C
176.0 272.0 L
175.5 272.0 L
175.5 266.955 190.67 263.5 208.0 263.5 C
208.0 264.0 L
208.0 263.5 L
225.33 263.5 240.5 266.955 240.5 272.0 C
240.0 272.0 L
240.5 272.0 L
239.5 272.0 M
239.5 272.0 L
239.5 268.209 226.016 264.5 208.0 264.5 C
208.0 264.5 L
189.984 264.5 176.5 268.209 176.5 272.0 C
176.5 272.0 L
176.5 275.791 189.984 279.5 208.0 279.5 C
208.0 279.5 L
226.016 279.5 239.5 275.791 239.5 272.0 C
P
G
WC
WF
R N
0.8 0.0 0.0  SC
N
87.215 423.38 M
87.215 423.38 L
207.215 271.38 L
207.835 270.595 L
209.405 271.835 L
208.785 272.62 L
88.785 424.62 L
88.165 425.405 L
86.595 424.165 L
P
G
WC
WF
R N
N
84.902 427.924 M
87.959 417.597 L
89.859 421.645 L
94.238 422.554 L
P
G
WC
WF
R N
N
84.422 427.783 M
84.422 427.783 L
87.479 417.455 L
87.853 416.194 L
88.411 417.385 L
90.312 421.433 L
89.859 421.645 L
89.961 421.156 L
94.339 422.065 L
95.627 422.332 L
94.487 422.988 L
85.151 428.358 L
84.068 428.981 L
84.422 427.783 L
85.381 428.066 M
84.902 427.924 L
84.652 427.491 L
93.988 422.121 L
94.238 422.554 L
94.136 423.044 L
89.757 422.135 L
89.513 422.084 L
89.406 421.858 L
87.506 417.809 L
87.959 417.597 L
88.438 417.739 L
85.381 428.066 L
P
G
WC
WF
R N
N
207.834 272.783 M
207.834 272.783 L
204.693 272.115 201.7 269.433 201.7 263.815 C
202.5 263.815 L
201.7 263.815 L
201.7 258.492 205.685 256.147 209.092 256.147 C
209.092 256.147 L
211.598 256.147 214.3 257.487 214.3 260.308 C
213.5 260.308 L
214.3 260.308 L
214.3 262.934 211.937 264.298 209.569 264.298 C
209.569 264.298 L
205.926 264.298 201.7 261.296 201.7 254.462 C
202.5 254.462 L
201.7 254.462 L
201.7 247.627 205.926 244.625 209.569 244.625 C
209.569 244.625 L
211.937 244.625 214.3 245.99 214.3 248.615 C
213.5 248.615 L
214.3 248.615 L
214.3 251.241 211.937 252.606 209.569 252.606 C
209.569 252.606 L
205.926 252.606 201.7 249.604 201.7 242.769 C
202.5 242.769 L
201.7 242.769 L
201.7 235.935 205.926 232.933 209.569 232.933 C
209.569 232.933 L
211.937 232.933 214.3 234.297 214.3 236.923 C
213.5 236.923 L
214.3 236.923 L
214.3 239.549 211.937 240.913 209.569 240.913 C
209.569 240.913 L
205.926 240.913 201.7 237.912 201.7 231.077 C
202.5 231.077 L
201.7 231.077 L
201.7 224.242 205.926 221.241 209.569 221.241 C
209.569 221.241 L
211.937 221.241 214.3 222.605 214.3 225.231 C
213.5 225.231 L
214.3 225.231 L
214.3 227.857 211.937 229.221 209.569 229.221 C
209.569 229.221 L
205.926 229.221 201.7 226.219 201.7 219.385 C
202.5 219.385 L
201.7 219.385 L
201.7 212.55 205.926 209.548 209.569 209.548 C
209.569 209.548 L
211.937 209.548 214.3 210.913 214.3 213.538 C
213.5 213.538 L
214.3 213.538 L
214.3 216.164 211.937 217.529 209.569 217.529 C
209.569 217.529 L
205.926 217.529 201.7 214.527 201.7 207.692 C
202.5 207.692 L
201.7 207.692 L
201.7 200.858 205.926 197.856 209.569 197.856 C
209.569 197.856 L
211.937 197.856 214.3 199.22 214.3 201.846 C
213.5 201.846 L
214.3 201.846 L
214.3 204.472 211.937 205.836 209.569 205.836 C
209.569 205.836 L
205.926 205.836 201.7 202.835 201.7 196.0 C
202.5 196.0 L
201.7 196.0 L
201.7 189.165 205.926 186.164 209.569 186.164 C
209.569 186.164 L
211.937 186.164 214.3 187.528 214.3 190.154 C
213.5 190.154 L
214.3 190.154 L
214.3 192.78 211.937 194.144 209.569 194.144 C
209.569 194.144 L
205.926 194.144 201.7 191.142 201.7 184.308 C
202.5 184.308 L
201.7 184.308 L
201.7 177.473 205.926 174.471 209.569 174.471 C
209.569 174.471 L
211.937 174.471 214.3 175.836 214.3 178.462 C
213.5 178.462 L
214.3 178.462 L
214.3 181.087 211.937 182.452 209.569 182.452 C
209.569 182.452 L
205.926 182.452 201.7 179.45 201.7 172.615 C
202.5 172.615 L
201.7 172.615 L
201.7 165.781 205.926 162.779 209.569 162.779 C
209.569 162.779 L
211.937 162.779 214.3 164.143 214.3 166.769 C
213.5 166.769 L
214.3 166.769 L
214.3 169.395 211.937 170.759 209.569 170.759 C
209.569 170.759 L
205.926 170.759 201.7 167.758 201.7 160.923 C
202.5 160.923 L
201.7 160.923 L
201.7 154.088 205.926 151.087 209.569 151.087 C
209.569 151.087 L
211.937 151.087 214.3 152.451 214.3 155.077 C
213.5 155.077 L
214.3 155.077 L
214.3 157.703 211.937 159.067 209.569 159.067 C
209.569 159.067 L
205.926 159.067 201.7 156.065 201.7 149.231 C
202.5 149.231 L
201.7 149.231 L
201.7 142.396 205.926 139.394 209.569 139.394 C
209.569 139.394 L
211.937 139.394 214.3 140.759 214.3 143.385 C
213.5 143.385 L
214.3 143.385 L
214.3 146.01 211.937 147.375 209.569 147.375 C
209.569 147.375 L
205.926 147.375 201.7 144.373 201.7 137.538 C
202.5 137.538 L
201.7 137.538 L
201.7 130.704 205.926 127.702 209.569 127.702 C
209.569 127.702 L
211.937 127.702 214.3 129.066 214.3 131.692 C
213.5 131.692 L
214.3 131.692 L
214.3 134.513 211.598 135.853 209.092 135.853 C
209.092 135.853 L
205.685 135.853 201.7 133.508 201.7 128.185 C
202.5 128.185 L
201.7 128.185 L
201.7 122.567 204.693 119.885 207.834 119.217 C
208.616 119.051 L
208.949 120.616 L
208.166 120.783 L
205.807 121.284 203.3 123.279 203.3 128.185 C
203.3 128.185 L
203.3 132.445 206.377 134.253 209.092 134.253 C
209.092 134.253 L
211.269 134.253 212.7 133.162 212.7 131.692 C
212.7 131.692 L
212.7 130.321 211.477 129.302 209.569 129.302 C
209.569 129.302 L
206.896 129.302 203.3 131.499 203.3 137.538 C
203.3 137.538 L
203.3 143.578 206.896 145.775 209.569 145.775 C
209.569 145.775 L
211.477 145.775 212.7 144.756 212.7 143.385 C
212.7 143.385 L
212.7 142.013 211.477 140.994 209.569 140.994 C
209.569 140.994 L
206.896 140.994 203.3 143.191 203.3 149.231 C
203.3 149.231 L
203.3 155.271 206.896 157.467 209.569 157.467 C
209.569 157.467 L
211.477 157.467 212.7 156.448 212.7 155.077 C
212.7 155.077 L
212.7 153.706 211.477 152.687 209.569 152.687 C
209.569 152.687 L
206.896 152.687 203.3 154.883 203.3 160.923 C
203.3 160.923 L
203.3 166.963 206.896 169.159 209.569 169.159 C
209.569 169.159 L
211.477 169.159 212.7 168.14 212.7 166.769 C
212.7 166.769 L
212.7 165.398 211.477 164.379 209.569 164.379 C
209.569 164.379 L
206.896 164.379 203.3 166.576 203.3 172.615 C
203.3 172.615 L
203.3 178.655 206.896 180.852 209.569 180.852 C
209.569 180.852 L
211.477 180.852 212.7 179.833 212.7 178.462 C
212.7 178.462 L
212.7 177.09 211.477 176.071 209.569 176.071 C
209.569 176.071 L
206.896 176.071 203.3 178.268 203.3 184.308 C
203.3 184.308 L
203.3 190.348 206.896 192.544 209.569 192.544 C
209.569 192.544 L
211.477 192.544 212.7 191.525 212.7 190.154 C
212.7 190.154 L
212.7 188.783 211.477 187.764 209.569 187.764 C
209.569 187.764 L
206.896 187.764 203.3 189.96 203.3 196.0 C
203.3 196.0 L
203.3 202.04 206.896 204.236 209.569 204.236 C
209.569 204.236 L
211.477 204.236 212.7 203.217 212.7 201.846 C
212.7 201.846 L
212.7 200.475 211.477 199.456 209.569 199.456 C
209.569 199.456 L
206.896 199.456 203.3 201.652 203.3 207.692 C
203.3 207.692 L
203.3 213.732 206.896 215.929 209.569 215.929 C
209.569 215.929 L
211.477 215.929 212.7 214.91 212.7 213.538 C
212.7 213.538 L
212.7 212.167 211.477 211.148 209.569 211.148 C
209.569 211.148 L
206.896 211.148 203.3 213.345 203.3 219.385 C
203.3 219.385 L
203.3 225.424 206.896 227.621 209.569 227.621 C
209.569 227.621 L
211.477 227.621 212.7 226.602 212.7 225.231 C
212.7 225.231 L
212.7 223.86 211.477 222.841 209.569 222.841 C
209.569 222.841 L
206.896 222.841 203.3 225.037 203.3 231.077 C
203.3 231.077 L
203.3 237.117 206.896 239.313 209.569 239.313 C
209.569 239.313 L
211.477 239.313 212.7 238.294 212.7 236.923 C
212.7 236.923 L
212.7 235.552 211.477 234.533 209.569 234.533 C
209.569 234.533 L
206.896 234.533 203.3 236.729 203.3 242.769 C
203.3 242.769 L
203.3 248.809 206.896 251.006 209.569 251.006 C
209.569 251.006 L
211.477 251.006 212.7 249.987 212.7 248.615 C
212.7 248.615 L
212.7 247.244 211.477 246.225 209.569 246.225 C
209.569 246.225 L
206.896 246.225 203.3 248.422 203.3 254.462 C
203.3 254.462 L
203.3 260.501 206.896 262.698 209.569 262.698 C
209.569 262.698 L
211.477 262.698 212.7 261.679 212.7 260.308 C
212.7 260.308 L
212.7 258.838 211.269 257.747 209.092 257.747 C
209.092 257.747 L
206.377 257.747 203.3 259.555 203.3 263.815 C
203.3 263.815 L
203.3 268.721 205.807 270.716 208.166 271.218 C
208.949 271.384 L
208.616 272.949 L
P
G
WC
WF
R N
1.0 SG
N
8.0 71.5 M
8.0 71.5 L
408.0 71.5 L
408.5 71.5 L
408.5 72.0 L
408.5 432.0 L
408.5 432.5 L
408.0 432.5 L
8.0 432.5 L
7.5 432.5 L
7.5 432.0 L
7.5 72.0 L
7.5 71.5 L
8.0 71.5 L
8.0 72.5 M
8.0 72.0 L
8.5 72.0 L
8.5 432.0 L
8.0 432.0 L
8.0 431.5 L
408.0 431.5 L
408.0 432.0 L
407.5 432.0 L
407.5 72.0 L
408.0 72.0 L
408.0 72.5 L
8.0 72.5 L
P
G
WC
WF
R N
pgSave restore
showpage
%%EOF
