%!PS-Adobe-3.0 EPSF-3.0
%%BoundingBox: 72 279 481 720
%%Creator: nadine with JaxoDraw-2.1-0
%%Title: 
%%CreationDate: 2/3/2018
%%BeginProlog
/imStr 0 def /imageSrc {currentfile /ASCII85Decode filter /RunLengthDecode filter  imStr readstring pop } def
/BD {bind def} bind def
/D {def} BD
/C {curveto} BD
/L {lineto} BD
/M {moveto} BD
/R {grestore} BD
/G {gsave} BD
/N {newpath} BD
/P {closepath} BD
/EC {eoclip} BD
/WC {clip} BD
/EF {eofill} BD
/WF {fill} BD
/SG {setgray} BD
/SC {setrgbcolor} BD
/ISOF {
     dup findfont dup length 1 add dict begin {
             1 index /FID eq {pop pop} {D} ifelse
     } forall /Encoding ISOLatin1Encoding D
     currentdict end definefont
} BD
/NZ {dup 1 lt {pop 1} if} BD
/S {
     moveto 1 index stringwidth pop NZ sub
     1 index length 1 sub NZ div 0
     3 2 roll ashow newpath} BD
/FL [
    /AvantGarde-Book ISOF
    /AvantGarde-BookOblique ISOF
    /AvantGarde-Demi ISOF
    /AvantGarde-DemiOblique ISOF
    /Bookman-Demi ISOF
    /Bookman-DemiItalic ISOF
    /Bookman-Light ISOF
    /Bookman-LightItalic ISOF
    /Courier ISOF
    /Courier-Bold ISOF
    /Courier-BoldOblique ISOF
    /Courier-Oblique ISOF
    /Helvetica ISOF
    /Helvetica-Bold ISOF
    /Helvetica-BoldOblique ISOF
    /Helvetica-Narrow ISOF
    /Helvetica-Narrow-Bold ISOF
    /Helvetica-Narrow-BoldOblique ISOF
    /Helvetica-Narrow-Oblique ISOF
    /Helvetica-Oblique ISOF
    /NewCenturySchlbk-Bold ISOF
    /NewCenturySchlbk-BoldItalic ISOF
    /NewCenturySchlbk-Italic ISOF
    /NewCenturySchlbk-Roman ISOF
    /Palatino-Bold ISOF
    /Palatino-BoldItalic ISOF
    /Palatino-Italic ISOF
    /Palatino-Roman ISOF
    /Symbol findfont
    /Times-Bold ISOF
    /Times-BoldItalic ISOF
    /Times-Italic ISOF
    /Times-Roman ISOF
    /ZapfDingbats findfont
    /ZapfChancery-MediumItalic ISOF
] D
/F {
     FL exch get exch scalefont
     [1 0 0 -1 0 0] makefont setfont} BD
%%EndProlog
%%BeginSetup
<< /PageSize [612.0 792.0] /DeferredMediaSelection true /ImagingBBox null /ManualFeed false /NumCopies 1 >> pop 
%%EndSetup
%%Page: 1 1
/pgSave save def
792.0 0 exch translate 1 -1 scale[72 300 div 0 0 72 300 div 0 0]concat
0.2 1.0 0.2  SC
G
[4.1666665 0.0 0.0 4.1666665 300.0 300.0] concat
N
0.0 0.0 M
468.0 0.0 L
468.0 648.0 L
0.0 648.0 L
0.0 0.0 L
P
WC
N
255.04 321.152 M
255.04 321.152 L
231.109 301.21 207.173 285.251 186.168 271.248 C
186.168 271.248 L
169.856 260.374 155.263 250.647 143.896 241.174 C
143.896 241.174 L
140.643 238.463 137.644 235.766 134.939 233.061 C
133.879 232.0 L
136.0 229.879 L
137.061 230.939 L
139.688 233.567 142.617 236.204 145.816 238.87 C
145.816 238.87 L
157.034 248.217 171.477 257.849 187.832 268.752 C
187.832 268.752 L
208.827 282.749 232.89 298.789 256.96 318.848 C
258.113 319.808 L
256.192 322.113 L
P
G
WC
WF
R N
N
368.0 297.5 M
368.0 297.5 L
64.0 297.5 L
62.5 297.5 L
62.5 294.5 L
64.0 294.5 L
368.0 294.5 L
369.5 294.5 L
369.5 297.5 L
P
G
WC
WF
R N
N
230.698 320.744 M
230.698 320.744 L
198.792 264.909 191.186 265.5 168.0 265.5 C
166.5 265.5 L
166.5 262.5 L
168.0 262.5 L
192.814 262.5 201.208 263.091 233.302 319.256 C
234.047 320.558 L
231.442 322.047 L
P
G
WC
WF
R N
N
177.302 191.256 M
177.302 191.256 L
209.732 248.008 201.376 272.699 153.139 328.976 C
152.163 330.115 L
149.885 328.163 L
150.861 327.024 L
198.624 271.301 206.268 247.992 174.698 192.744 C
173.953 191.442 L
176.558 189.953 L
P
G
WC
WF
R N
1.0 0.6 0.8  SC
N
311.641 328.933 M
311.641 328.933 L
207.641 288.933 L
206.708 288.574 L
207.426 286.708 L
208.359 287.067 L
312.359 327.067 L
313.292 327.426 L
312.574 329.292 L
P
G
WC
WF
R N
N
316.667 329.795 M
305.897 329.938 L
309.2 326.923 L
308.769 322.472 L
P
G
WC
WF
R N
N
316.673 330.295 M
316.673 330.295 L
305.904 330.438 L
304.589 330.456 L
305.56 329.569 L
308.863 326.554 L
309.2 326.923 L
308.702 326.971 L
308.272 322.52 L
308.145 321.211 L
309.109 322.105 L
317.007 329.428 L
317.923 330.278 L
316.673 330.295 L
316.66 329.295 M
316.667 329.795 L
316.327 330.162 L
308.429 322.838 L
308.769 322.472 L
309.267 322.424 L
309.698 326.875 L
309.722 327.124 L
309.537 327.292 L
306.235 330.308 L
305.897 329.938 L
305.891 329.439 L
316.66 329.295 L
P
G
WC
WF
R N
N
207.553 288.894 M
207.553 288.894 L
95.553 232.894 L
94.658 232.447 L
95.553 230.658 L
96.447 231.106 L
208.447 287.106 L
209.342 287.553 L
208.447 289.342 L
P
G
WC
WF
R N
N
91.528 229.764 M
102.261 230.658 L
98.683 233.342 L
98.683 237.814 L
P
G
WC
WF
R N
N
91.569 229.266 M
91.569 229.266 L
102.303 230.16 L
103.613 230.269 L
102.561 231.058 L
98.983 233.742 L
98.683 233.342 L
99.183 233.342 L
99.183 237.814 L
99.183 239.129 L
98.31 238.146 L
91.154 230.096 L
90.324 229.162 L
91.569 229.266 L
91.486 230.262 M
91.528 229.764 L
91.902 229.432 L
99.057 237.482 L
98.683 237.814 L
98.183 237.814 L
98.183 233.342 L
98.183 233.092 L
98.383 232.942 L
101.961 230.258 L
102.261 230.658 L
102.219 231.157 L
91.486 230.262 L
P
G
WC
WF
R N
N
240.0 287.0 M
240.0 287.0 L
400.0 287.0 L
401.0 287.0 L
401.0 289.0 L
400.0 289.0 L
240.0 289.0 L
239.0 289.0 L
239.0 287.0 L
P
G
WC
WF
R N
N
235.0 288.0 M
245.0 284.0 L
243.0 288.0 L
245.0 292.0 L
P
G
WC
WF
R N
N
234.814 287.536 M
234.814 287.536 L
244.814 283.536 L
246.035 283.047 L
245.447 284.224 L
243.447 288.224 L
243.0 288.0 L
243.447 287.776 L
245.447 291.776 L
246.035 292.953 L
244.814 292.464 L
234.814 288.464 L
233.654 288.0 L
234.814 287.536 L
235.186 288.464 M
235.0 288.0 L
235.186 287.536 L
245.186 291.536 L
245.0 292.0 L
244.553 292.224 L
242.553 288.224 L
242.441 288.0 L
242.553 287.776 L
244.553 283.776 L
245.0 284.0 L
245.186 284.464 L
235.186 288.464 L
P
G
WC
WF
R N
N
32.0 287.0 M
32.0 287.0 L
176.0 287.0 L
177.0 287.0 L
177.0 289.0 L
176.0 289.0 L
32.0 289.0 L
31.0 289.0 L
31.0 287.0 L
P
G
WC
WF
R N
N
181.0 288.0 M
171.0 292.0 L
173.0 288.0 L
171.0 284.0 L
P
G
WC
WF
R N
N
181.186 288.464 M
181.186 288.464 L
171.186 292.464 L
169.965 292.953 L
170.553 291.776 L
172.553 287.776 L
173.0 288.0 L
172.553 288.224 L
170.553 284.224 L
169.965 283.047 L
171.186 283.536 L
181.186 287.536 L
182.346 288.0 L
181.186 288.464 L
180.814 287.536 M
181.0 288.0 L
180.814 288.464 L
170.814 284.464 L
171.0 284.0 L
171.447 283.776 L
173.447 287.776 L
173.559 288.0 L
173.447 288.224 L
171.447 292.224 L
171.0 292.0 L
170.814 291.536 L
180.814 287.536 L
P
G
WC
WF
R N
0.8 0.0 0.0  SC
N
327.215 424.62 M
327.215 424.62 L
207.215 272.62 L
206.595 271.835 L
208.165 270.595 L
208.785 271.38 L
328.785 423.38 L
329.405 424.165 L
327.835 425.405 L
P
G
WC
WF
R N
N
331.098 427.924 M
321.762 422.554 L
326.141 421.645 L
328.041 417.597 L
P
G
WC
WF
R N
N
330.849 428.358 M
330.849 428.358 L
321.513 422.988 L
320.373 422.332 L
321.661 422.065 L
326.039 421.156 L
326.141 421.645 L
325.688 421.433 L
327.589 417.385 L
328.148 416.194 L
328.521 417.455 L
331.578 427.783 L
331.932 428.981 L
330.849 428.358 L
331.348 427.491 M
331.098 427.924 L
330.619 428.066 L
327.562 417.739 L
328.041 417.597 L
328.494 417.809 L
326.594 421.858 L
326.487 422.084 L
326.243 422.135 L
321.864 423.044 L
321.762 422.554 L
322.012 422.121 L
331.348 427.491 L
P
G
WC
WF
R N
N
32.0 271.0 M
32.0 271.0 L
176.0 271.0 L
177.0 271.0 L
177.0 273.0 L
176.0 273.0 L
32.0 273.0 L
31.0 273.0 L
31.0 271.0 L
P
G
WC
WF
R N
N
181.0 272.0 M
171.0 276.0 L
173.0 272.0 L
171.0 268.0 L
P
G
WC
WF
R N
N
181.186 272.464 M
181.186 272.464 L
171.186 276.464 L
169.965 276.953 L
170.553 275.776 L
172.553 271.776 L
173.0 272.0 L
172.553 272.224 L
170.553 268.224 L
169.965 267.047 L
171.186 267.536 L
181.186 271.536 L
182.346 272.0 L
181.186 272.464 L
180.814 271.536 M
181.0 272.0 L
180.814 272.464 L
170.814 268.464 L
171.0 268.0 L
171.447 267.776 L
173.447 271.776 L
173.559 272.0 L
173.447 272.224 L
171.447 276.224 L
171.0 276.0 L
170.814 275.536 L
180.814 271.536 L
P
G
WC
WF
R N
N
240.0 271.0 M
240.0 271.0 L
400.0 271.0 L
401.0 271.0 L
401.0 273.0 L
400.0 273.0 L
240.0 273.0 L
239.0 273.0 L
239.0 271.0 L
P
G
WC
WF
R N
N
235.0 272.0 M
245.0 268.0 L
243.0 272.0 L
245.0 276.0 L
P
G
WC
WF
R N
N
234.814 271.536 M
234.814 271.536 L
244.814 267.536 L
246.035 267.047 L
245.447 268.224 L
243.447 272.224 L
243.0 272.0 L
243.447 271.776 L
245.447 275.776 L
246.035 276.953 L
244.814 276.464 L
234.814 272.464 L
233.654 272.0 L
234.814 271.536 L
235.186 272.464 M
235.0 272.0 L
235.186 271.536 L
245.186 275.536 L
245.0 276.0 L
244.553 276.224 L
242.553 272.224 L
242.441 272.0 L
242.553 271.776 L
244.553 267.776 L
245.0 268.0 L
245.186 268.464 L
235.186 272.464 L
P
G
WC
WF
R N
0.88235295 SG
N
62.0 279.0 M
62.0 296.673 54.837 311.0 46.0 311.0 C
37.163 311.0 30.0 296.673 30.0 279.0 C
30.0 261.327 37.163 247.0 46.0 247.0 C
54.837 247.0 62.0 261.327 62.0 279.0 C
P
G
WC
WF
R N
0.0 SG
N
62.5 279.0 M
62.5 279.0 L
62.5 296.603 55.362 311.5 46.0 311.5 C
46.0 311.0 L
46.0 311.5 L
36.638 311.5 29.5 296.603 29.5 279.0 C
30.0 279.0 L
29.5 279.0 L
29.5 261.397 36.638 246.5 46.0 246.5 C
46.0 247.0 L
46.0 246.5 L
55.362 246.5 62.5 261.397 62.5 279.0 C
62.0 279.0 L
62.5 279.0 L
61.5 279.0 M
61.5 279.0 L
61.5 261.256 54.311 247.5 46.0 247.5 C
46.0 247.5 L
37.689 247.5 30.5 261.256 30.5 279.0 C
30.5 279.0 L
30.5 296.744 37.689 310.5 46.0 310.5 C
46.0 310.5 L
54.311 310.5 61.5 296.744 61.5 279.0 C
P
G
WC
WF
R N
0.88235295 SG
N
403.0 280.0 M
403.0 297.673 395.837 312.0 387.0 312.0 C
378.163 312.0 371.0 297.673 371.0 280.0 C
371.0 262.327 378.163 248.0 387.0 248.0 C
395.837 248.0 403.0 262.327 403.0 280.0 C
P
G
WC
WF
R N
0.0 SG
N
403.5 280.0 M
403.5 280.0 L
403.5 297.603 396.362 312.5 387.0 312.5 C
387.0 312.0 L
387.0 312.5 L
377.638 312.5 370.5 297.603 370.5 280.0 C
371.0 280.0 L
370.5 280.0 L
370.5 262.397 377.638 247.5 387.0 247.5 C
387.0 248.0 L
387.0 247.5 L
396.362 247.5 403.5 262.397 403.5 280.0 C
403.0 280.0 L
403.5 280.0 L
402.5 280.0 M
402.5 280.0 L
402.5 262.256 395.311 248.5 387.0 248.5 C
387.0 248.5 L
378.689 248.5 371.5 262.256 371.5 280.0 C
371.5 280.0 L
371.5 297.744 378.689 311.5 387.0 311.5 C
387.0 311.5 L
395.311 311.5 402.5 297.744 402.5 280.0 C
P
G
WC
WF
R N
0.0 0.0 1.0  SC
N
247.814 384.464 M
247.814 384.464 L
245.803 383.657 244.204 380.995 244.57 375.875 C
245.069 375.911 L
244.57 375.875 L
244.863 371.773 247.636 370.157 249.914 370.319 C
249.914 370.319 L
251.433 370.428 252.91 371.399 252.79 373.085 C
252.792 373.058 L
252.79 373.085 L
252.68 374.621 251.323 375.405 249.911 375.304 C
249.911 375.304 L
247.484 375.131 244.809 372.537 245.21 366.915 C
245.208 366.942 L
245.21 366.915 L
245.612 361.294 248.629 359.106 251.056 359.279 C
251.056 359.279 L
252.468 359.38 253.7 360.35 253.59 361.885 C
253.091 361.849 L
253.59 361.885 L
253.48 363.42 252.123 364.205 250.711 364.104 C
250.711 364.104 L
248.284 363.931 245.609 361.337 246.01 355.715 C
246.509 355.751 L
246.01 355.715 L
246.412 350.094 249.429 347.906 251.856 348.079 C
251.856 348.079 L
253.268 348.18 254.5 349.15 254.39 350.685 C
254.39 350.69 L
254.39 350.685 L
254.28 352.22 252.923 353.005 251.511 352.904 C
251.511 352.904 L
249.084 352.731 246.409 350.137 246.81 344.515 C
247.309 344.551 L
246.81 344.515 L
247.212 338.893 250.229 336.706 252.656 336.879 C
252.656 336.879 L
254.068 336.98 255.3 337.95 255.19 339.485 C
254.691 339.449 L
255.19 339.485 L
255.069 341.171 253.469 341.922 251.95 341.814 C
251.95 341.814 L
249.673 341.651 247.157 339.657 247.45 335.555 C
247.949 335.591 L
247.45 335.555 L
247.816 330.435 249.777 328.027 251.882 327.514 C
252.367 327.396 L
252.604 328.367 L
252.118 328.486 L
250.652 328.843 248.802 330.666 248.448 335.626 C
248.448 335.626 L
248.448 335.626 L
248.193 339.195 250.312 340.694 252.021 340.816 C
252.021 340.816 L
253.272 340.906 254.129 340.305 254.192 339.414 C
254.192 339.414 L
254.251 338.594 253.626 337.951 252.585 337.877 C
252.585 337.877 L
250.92 337.758 248.187 339.277 247.808 344.586 C
247.808 344.586 L
247.808 344.586 L
247.428 349.896 249.918 351.788 251.583 351.907 C
251.583 351.907 L
252.624 351.981 253.334 351.434 253.392 350.614 C
253.891 350.649 L
253.392 350.614 L
253.451 349.794 252.826 349.151 251.785 349.077 C
251.785 349.077 L
250.12 348.958 247.387 350.477 247.008 355.786 C
247.01 355.759 L
247.008 355.786 L
246.628 361.096 249.118 362.988 250.783 363.107 C
250.783 363.107 L
251.824 363.181 252.534 362.634 252.592 361.814 C
252.592 361.814 L
252.651 360.994 252.026 360.351 250.985 360.277 C
250.985 360.277 L
249.32 360.158 246.587 361.677 246.208 366.986 C
245.709 366.951 L
246.208 366.986 L
245.828 372.296 248.318 374.188 249.983 374.307 C
249.983 374.307 L
251.024 374.381 251.734 373.834 251.792 373.014 C
252.291 373.049 L
251.792 373.014 L
251.856 372.123 251.093 371.406 249.842 371.317 C
249.842 371.317 L
248.134 371.195 245.823 372.377 245.568 375.946 C
245.54 376.334 L
245.568 375.946 L
245.213 380.906 246.786 382.974 248.186 383.536 C
248.65 383.722 L
248.278 384.65 L
P
G
WC
WF
R N
0.8 0.0 0.0  SC
N
240.0 272.0 M
240.0 276.418 225.673 280.0 208.0 280.0 C
190.327 280.0 176.0 276.418 176.0 272.0 C
176.0 267.582 190.327 264.0 208.0 264.0 C
225.673 264.0 240.0 267.582 240.0 272.0 C
P
G
WC
WF
R N
0.0 SG
N
240.5 272.0 M
240.5 272.0 L
240.5 277.045 225.33 280.5 208.0 280.5 C
208.0 280.0 L
208.0 280.5 L
190.67 280.5 175.5 277.045 175.5 272.0 C
176.0 272.0 L
175.5 272.0 L
175.5 266.955 190.67 263.5 208.0 263.5 C
208.0 264.0 L
208.0 263.5 L
225.33 263.5 240.5 266.955 240.5 272.0 C
240.0 272.0 L
240.5 272.0 L
239.5 272.0 M
239.5 272.0 L
239.5 268.209 226.016 264.5 208.0 264.5 C
208.0 264.5 L
189.984 264.5 176.5 268.209 176.5 272.0 C
176.5 272.0 L
176.5 275.791 189.984 279.5 208.0 279.5 C
208.0 279.5 L
226.016 279.5 239.5 275.791 239.5 272.0 C
P
G
WC
WF
R N
0.8 0.0 0.0  SC
N
87.215 423.38 M
87.215 423.38 L
207.215 271.38 L
207.835 270.595 L
209.405 271.835 L
208.785 272.62 L
88.785 424.62 L
88.165 425.405 L
86.595 424.165 L
P
G
WC
WF
R N
N
84.902 427.924 M
87.959 417.597 L
89.859 421.645 L
94.238 422.554 L
P
G
WC
WF
R N
N
84.422 427.783 M
84.422 427.783 L
87.479 417.455 L
87.853 416.194 L
88.411 417.385 L
90.312 421.433 L
89.859 421.645 L
89.961 421.156 L
94.339 422.065 L
95.627 422.332 L
94.487 422.988 L
85.151 428.358 L
84.068 428.981 L
84.422 427.783 L
85.381 428.066 M
84.902 427.924 L
84.652 427.491 L
93.988 422.121 L
94.238 422.554 L
94.136 423.044 L
89.757 422.135 L
89.513 422.084 L
89.406 421.858 L
87.506 417.809 L
87.959 417.597 L
88.438 417.739 L
85.381 428.066 L
P
G
WC
WF
R N
N
207.834 272.783 M
207.834 272.783 L
204.693 272.115 201.7 269.433 201.7 263.815 C
202.5 263.815 L
201.7 263.815 L
201.7 258.492 205.685 256.147 209.092 256.147 C
209.092 256.147 L
211.598 256.147 214.3 257.487 214.3 260.308 C
213.5 260.308 L
214.3 260.308 L
214.3 262.934 211.937 264.298 209.569 264.298 C
209.569 264.298 L
205.926 264.298 201.7 261.296 201.7 254.462 C
202.5 254.462 L
201.7 254.462 L
201.7 247.627 205.926 244.625 209.569 244.625 C
209.569 244.625 L
211.937 244.625 214.3 245.99 214.3 248.615 C
213.5 248.615 L
214.3 248.615 L
214.3 251.241 211.937 252.606 209.569 252.606 C
209.569 252.606 L
205.926 252.606 201.7 249.604 201.7 242.769 C
202.5 242.769 L
201.7 242.769 L
201.7 235.935 205.926 232.933 209.569 232.933 C
209.569 232.933 L
211.937 232.933 214.3 234.297 214.3 236.923 C
213.5 236.923 L
214.3 236.923 L
214.3 239.549 211.937 240.913 209.569 240.913 C
209.569 240.913 L
205.926 240.913 201.7 237.912 201.7 231.077 C
202.5 231.077 L
201.7 231.077 L
201.7 224.242 205.926 221.241 209.569 221.241 C
209.569 221.241 L
211.937 221.241 214.3 222.605 214.3 225.231 C
213.5 225.231 L
214.3 225.231 L
214.3 227.857 211.937 229.221 209.569 229.221 C
209.569 229.221 L
205.926 229.221 201.7 226.219 201.7 219.385 C
202.5 219.385 L
201.7 219.385 L
201.7 212.55 205.926 209.548 209.569 209.548 C
209.569 209.548 L
211.937 209.548 214.3 210.913 214.3 213.538 C
213.5 213.538 L
214.3 213.538 L
214.3 216.164 211.937 217.529 209.569 217.529 C
209.569 217.529 L
205.926 217.529 201.7 214.527 201.7 207.692 C
202.5 207.692 L
201.7 207.692 L
201.7 200.858 205.926 197.856 209.569 197.856 C
209.569 197.856 L
211.937 197.856 214.3 199.22 214.3 201.846 C
213.5 201.846 L
214.3 201.846 L
214.3 204.472 211.937 205.836 209.569 205.836 C
209.569 205.836 L
205.926 205.836 201.7 202.835 201.7 196.0 C
202.5 196.0 L
201.7 196.0 L
201.7 189.165 205.926 186.164 209.569 186.164 C
209.569 186.164 L
211.937 186.164 214.3 187.528 214.3 190.154 C
213.5 190.154 L
214.3 190.154 L
214.3 192.78 211.937 194.144 209.569 194.144 C
209.569 194.144 L
205.926 194.144 201.7 191.142 201.7 184.308 C
202.5 184.308 L
201.7 184.308 L
201.7 177.473 205.926 174.471 209.569 174.471 C
209.569 174.471 L
211.937 174.471 214.3 175.836 214.3 178.462 C
213.5 178.462 L
214.3 178.462 L
214.3 181.087 211.937 182.452 209.569 182.452 C
209.569 182.452 L
205.926 182.452 201.7 179.45 201.7 172.615 C
202.5 172.615 L
201.7 172.615 L
201.7 165.781 205.926 162.779 209.569 162.779 C
209.569 162.779 L
211.937 162.779 214.3 164.143 214.3 166.769 C
213.5 166.769 L
214.3 166.769 L
214.3 169.395 211.937 170.759 209.569 170.759 C
209.569 170.759 L
205.926 170.759 201.7 167.758 201.7 160.923 C
202.5 160.923 L
201.7 160.923 L
201.7 154.088 205.926 151.087 209.569 151.087 C
209.569 151.087 L
211.937 151.087 214.3 152.451 214.3 155.077 C
213.5 155.077 L
214.3 155.077 L
214.3 157.703 211.937 159.067 209.569 159.067 C
209.569 159.067 L
205.926 159.067 201.7 156.065 201.7 149.231 C
202.5 149.231 L
201.7 149.231 L
201.7 142.396 205.926 139.394 209.569 139.394 C
209.569 139.394 L
211.937 139.394 214.3 140.759 214.3 143.385 C
213.5 143.385 L
214.3 143.385 L
214.3 146.01 211.937 147.375 209.569 147.375 C
209.569 147.375 L
205.926 147.375 201.7 144.373 201.7 137.538 C
202.5 137.538 L
201.7 137.538 L
201.7 130.704 205.926 127.702 209.569 127.702 C
209.569 127.702 L
211.937 127.702 214.3 129.066 214.3 131.692 C
213.5 131.692 L
214.3 131.692 L
214.3 134.513 211.598 135.853 209.092 135.853 C
209.092 135.853 L
205.685 135.853 201.7 133.508 201.7 128.185 C
202.5 128.185 L
201.7 128.185 L
201.7 122.567 204.693 119.885 207.834 119.217 C
208.616 119.051 L
208.949 120.616 L
208.166 120.783 L
205.807 121.284 203.3 123.279 203.3 128.185 C
203.3 128.185 L
203.3 132.445 206.377 134.253 209.092 134.253 C
209.092 134.253 L
211.269 134.253 212.7 133.162 212.7 131.692 C
212.7 131.692 L
212.7 130.321 211.477 129.302 209.569 129.302 C
209.569 129.302 L
206.896 129.302 203.3 131.499 203.3 137.538 C
203.3 137.538 L
203.3 143.578 206.896 145.775 209.569 145.775 C
209.569 145.775 L
211.477 145.775 212.7 144.756 212.7 143.385 C
212.7 143.385 L
212.7 142.013 211.477 140.994 209.569 140.994 C
209.569 140.994 L
206.896 140.994 203.3 143.191 203.3 149.231 C
203.3 149.231 L
203.3 155.271 206.896 157.467 209.569 157.467 C
209.569 157.467 L
211.477 157.467 212.7 156.448 212.7 155.077 C
212.7 155.077 L
212.7 153.706 211.477 152.687 209.569 152.687 C
209.569 152.687 L
206.896 152.687 203.3 154.883 203.3 160.923 C
203.3 160.923 L
203.3 166.963 206.896 169.159 209.569 169.159 C
209.569 169.159 L
211.477 169.159 212.7 168.14 212.7 166.769 C
212.7 166.769 L
212.7 165.398 211.477 164.379 209.569 164.379 C
209.569 164.379 L
206.896 164.379 203.3 166.576 203.3 172.615 C
203.3 172.615 L
203.3 178.655 206.896 180.852 209.569 180.852 C
209.569 180.852 L
211.477 180.852 212.7 179.833 212.7 178.462 C
212.7 178.462 L
212.7 177.09 211.477 176.071 209.569 176.071 C
209.569 176.071 L
206.896 176.071 203.3 178.268 203.3 184.308 C
203.3 184.308 L
203.3 190.348 206.896 192.544 209.569 192.544 C
209.569 192.544 L
211.477 192.544 212.7 191.525 212.7 190.154 C
212.7 190.154 L
212.7 188.783 211.477 187.764 209.569 187.764 C
209.569 187.764 L
206.896 187.764 203.3 189.96 203.3 196.0 C
203.3 196.0 L
203.3 202.04 206.896 204.236 209.569 204.236 C
209.569 204.236 L
211.477 204.236 212.7 203.217 212.7 201.846 C
212.7 201.846 L
212.7 200.475 211.477 199.456 209.569 199.456 C
209.569 199.456 L
206.896 199.456 203.3 201.652 203.3 207.692 C
203.3 207.692 L
203.3 213.732 206.896 215.929 209.569 215.929 C
209.569 215.929 L
211.477 215.929 212.7 214.91 212.7 213.538 C
212.7 213.538 L
212.7 212.167 211.477 211.148 209.569 211.148 C
209.569 211.148 L
206.896 211.148 203.3 213.345 203.3 219.385 C
203.3 219.385 L
203.3 225.424 206.896 227.621 209.569 227.621 C
209.569 227.621 L
211.477 227.621 212.7 226.602 212.7 225.231 C
212.7 225.231 L
212.7 223.86 211.477 222.841 209.569 222.841 C
209.569 222.841 L
206.896 222.841 203.3 225.037 203.3 231.077 C
203.3 231.077 L
203.3 237.117 206.896 239.313 209.569 239.313 C
209.569 239.313 L
211.477 239.313 212.7 238.294 212.7 236.923 C
212.7 236.923 L
212.7 235.552 211.477 234.533 209.569 234.533 C
209.569 234.533 L
206.896 234.533 203.3 236.729 203.3 242.769 C
203.3 242.769 L
203.3 248.809 206.896 251.006 209.569 251.006 C
209.569 251.006 L
211.477 251.006 212.7 249.987 212.7 248.615 C
212.7 248.615 L
212.7 247.244 211.477 246.225 209.569 246.225 C
209.569 246.225 L
206.896 246.225 203.3 248.422 203.3 254.462 C
203.3 254.462 L
203.3 260.501 206.896 262.698 209.569 262.698 C
209.569 262.698 L
211.477 262.698 212.7 261.679 212.7 260.308 C
212.7 260.308 L
212.7 258.838 211.269 257.747 209.092 257.747 C
209.092 257.747 L
206.377 257.747 203.3 259.555 203.3 263.815 C
203.3 263.815 L
203.3 268.721 205.807 270.716 208.166 271.218 C
208.949 271.384 L
208.616 272.949 L
P
G
WC
WF
R N
0.0 0.0 1.0  SC
N
108.531 376.172 M
108.531 376.172 L
107.774 374.112 108.801 370.959 113.159 367.327 C
113.159 367.327 L
113.159 367.327 L
116.512 364.533 119.703 365.374 121.185 367.152 C
121.185 367.152 L
122.147 368.307 122.437 370.009 121.161 371.073 C
121.145 371.086 L
121.161 371.073 L
120.006 372.035 118.531 371.646 117.642 370.578 C
117.642 370.578 L
116.065 368.686 116.167 364.82 120.839 360.927 C
120.839 360.927 L
120.839 360.927 L
125.511 357.034 129.332 357.631 130.908 359.522 C
130.908 359.522 L
131.798 360.59 131.916 362.11 130.761 363.073 C
128.341 365.089 L
130.761 363.073 L
129.606 364.035 128.131 363.646 127.242 362.578 C
127.242 362.578 L
125.665 360.686 125.767 356.82 130.439 352.927 C
130.439 352.927 L
130.439 352.927 L
135.111 349.034 138.932 349.631 140.508 351.522 C
140.508 351.522 L
141.398 352.59 141.516 354.11 140.361 355.073 C
139.377 355.892 L
140.361 355.073 L
139.206 356.035 137.731 355.646 136.842 354.578 C
136.842 354.578 L
135.265 352.686 135.367 348.82 140.039 344.927 C
140.039 344.927 L
140.039 344.927 L
144.711 341.034 148.532 341.631 150.108 343.522 C
150.108 343.522 L
150.998 344.59 151.116 346.11 149.961 347.073 C
148.977 347.892 L
149.961 347.073 L
148.684 348.137 147.062 347.544 146.1 346.389 C
146.1 346.389 L
144.618 344.611 144.367 341.321 147.719 338.527 C
148.039 338.911 L
147.719 338.527 L
152.077 334.895 155.364 334.454 157.254 335.569 C
157.685 335.824 L
157.176 336.685 L
156.746 336.431 L
155.436 335.657 152.642 335.727 148.359 339.295 C
148.359 339.295 L
145.386 341.773 145.776 344.439 146.868 345.749 C
146.868 345.749 L
147.645 346.682 148.646 346.867 149.321 346.305 C
149.641 346.689 L
149.321 346.305 L
149.94 345.788 149.977 344.926 149.34 344.162 C
149.34 344.162 L
148.28 342.89 145.153 341.968 140.679 345.695 C
140.359 345.311 L
140.679 345.695 L
136.206 349.423 136.55 352.666 137.61 353.938 C
137.61 353.938 L
138.246 354.702 139.101 354.821 139.721 354.305 C
140.041 354.689 L
139.721 354.305 L
140.34 353.788 140.377 352.926 139.74 352.162 C
139.74 352.162 L
138.68 350.89 135.553 349.967 131.079 353.695 C
130.759 353.311 L
131.079 353.695 L
126.606 357.423 126.95 360.666 128.01 361.938 C
128.01 361.938 L
128.646 362.701 129.501 362.821 130.121 362.305 C
130.441 362.689 L
130.121 362.305 L
130.74 361.788 130.777 360.926 130.14 360.162 C
130.14 360.162 L
129.08 358.89 125.953 357.968 121.479 361.695 C
121.159 361.311 L
121.479 361.695 L
117.006 365.423 117.35 368.666 118.41 369.938 C
118.41 369.938 L
119.046 370.701 119.901 370.821 120.521 370.305 C
120.841 370.689 L
120.521 370.305 L
121.196 369.742 121.193 368.725 120.416 367.792 C
120.416 367.792 L
119.324 366.482 116.773 365.618 113.799 368.095 C
113.479 367.711 L
113.799 368.095 L
109.517 371.664 108.945 374.4 109.469 375.828 C
109.642 376.297 L
108.703 376.642 L
P
G
WC
WF
R N
N
248.447 384.224 M
248.447 384.224 L
240.447 400.224 L
240.224 400.671 L
239.329 400.224 L
239.553 399.776 L
247.553 383.776 L
247.776 383.329 L
248.671 383.776 L
P
G
WC
WF
R N
N
242.882 394.236 M
243.329 388.87 L
244.671 390.658 L
246.907 390.658 L
P
G
WC
WF
R N
N
242.384 394.195 M
242.384 394.195 L
242.831 388.828 L
242.94 387.517 L
243.729 388.57 L
245.071 390.358 L
244.671 390.658 L
244.671 390.158 L
246.907 390.158 L
248.222 390.158 L
247.239 391.032 L
243.214 394.61 L
242.28 395.44 L
242.384 394.195 L
243.38 394.278 M
242.882 394.236 L
242.55 393.862 L
246.575 390.285 L
246.907 390.658 L
246.907 391.158 L
244.671 391.158 L
244.421 391.158 L
244.271 390.958 L
242.929 389.17 L
243.329 388.87 L
243.827 388.911 L
243.38 394.278 L
P
G
WC
WF
R N
N
263.646 400.354 M
263.646 400.354 L
247.646 384.354 L
247.293 384.0 L
248.0 383.293 L
248.354 383.646 L
264.354 399.646 L
264.707 400.0 L
264.0 400.707 L
P
G
WC
WF
R N
N
254.232 390.232 M
259.182 392.354 L
257.061 393.061 L
256.354 395.182 L
P
G
WC
WF
R N
N
254.429 389.773 M
254.429 389.773 L
259.379 391.894 L
260.588 392.412 L
259.34 392.828 L
257.219 393.535 L
257.061 393.061 L
257.535 393.219 L
256.828 395.34 L
256.412 396.588 L
255.894 395.379 L
253.773 390.429 L
253.28 389.28 L
254.429 389.773 L
254.035 390.692 M
254.232 390.232 L
254.692 390.035 L
256.813 394.985 L
256.354 395.182 L
255.879 395.024 L
256.586 392.903 L
256.665 392.665 L
256.903 392.586 L
259.024 391.879 L
259.182 392.354 L
258.985 392.813 L
254.035 390.692 L
P
G
WC
WF
R N
N
328.306 272.395 M
328.306 272.395 L
326.614 273.705 323.674 273.8 319.872 271.035 C
319.872 271.035 L
319.872 271.035 L
316.709 268.734 316.855 265.601 318.181 263.778 C
318.181 263.778 L
319.088 262.532 320.716 261.756 322.103 262.765 C
321.809 263.169 L
322.103 262.765 L
323.373 263.689 323.29 265.293 322.444 266.455 C
322.444 266.455 L
321.029 268.401 317.542 269.34 313.272 266.235 C
313.566 265.831 L
313.272 266.235 L
309.003 263.13 308.822 259.523 310.237 257.577 C
310.237 257.577 L
311.082 256.414 312.583 255.841 313.853 256.765 C
313.559 257.169 L
313.853 256.765 L
315.123 257.689 315.04 259.293 314.194 260.455 C
314.194 260.455 L
312.779 262.401 309.292 263.34 305.022 260.235 C
305.316 259.831 L
305.022 260.235 L
300.753 257.13 300.572 253.523 301.987 251.577 C
301.987 251.577 L
302.832 250.414 304.333 249.841 305.603 250.765 C
305.634 250.788 L
305.603 250.765 L
306.99 251.774 306.754 253.561 305.847 254.808 C
305.847 254.808 L
304.521 256.631 301.586 257.736 298.422 255.435 C
298.545 255.524 L
298.422 255.435 L
294.62 252.67 293.805 249.844 294.529 247.831 C
294.699 247.36 L
295.64 247.699 L
295.471 248.169 L
294.961 249.586 295.387 251.991 299.011 254.626 C
298.716 255.031 L
299.011 254.626 L
301.714 256.592 304.028 255.61 305.038 254.22 C
305.038 254.22 L
305.796 253.178 305.747 252.106 305.015 251.574 C
305.309 251.169 L
305.015 251.574 L
304.339 251.082 303.435 251.286 302.796 252.165 C
302.796 252.165 L
301.808 253.523 301.632 256.532 305.611 259.426 C
305.611 259.426 L
309.589 262.32 312.398 261.225 313.386 259.867 C
313.386 259.867 L
314.025 258.988 313.94 258.065 313.265 257.574 C
313.28 257.585 L
313.265 257.574 L
312.589 257.082 311.685 257.286 311.046 258.165 C
311.046 258.165 L
310.058 259.523 309.882 262.532 313.861 265.426 C
313.986 265.518 L
313.861 265.426 L
317.839 268.32 320.648 267.225 321.636 265.867 C
321.636 265.867 L
322.275 264.988 322.19 264.065 321.515 263.574 C
321.53 263.585 L
321.515 263.574 L
320.782 263.041 319.748 263.325 318.99 264.366 C
318.99 264.366 L
317.979 265.756 317.757 268.26 320.461 270.226 C
320.166 270.631 L
320.461 270.226 L
324.084 272.861 326.503 272.526 327.694 271.605 C
328.09 271.299 L
328.701 272.09 L
P
G
WC
WF
R N
N
203.092 221.491 M
203.092 221.491 L
200.984 221.887 198.302 220.607 196.117 216.352 C
196.562 216.124 L
196.117 216.352 L
194.312 212.838 195.853 210.09 197.864 209.058 C
197.864 209.058 L
199.232 208.355 201.027 208.401 201.808 209.923 C
201.363 210.151 L
201.808 209.923 L
202.523 211.314 201.735 212.705 200.46 213.359 C
200.46 213.359 L
198.315 214.461 194.759 213.709 192.317 208.952 C
192.762 208.724 L
192.317 208.952 L
189.874 204.195 191.334 200.868 193.48 199.766 C
193.48 199.766 L
194.754 199.112 196.344 199.281 197.058 200.673 C
196.613 200.901 L
197.058 200.673 L
197.773 202.064 196.985 203.455 195.71 204.109 C
195.71 204.109 L
193.565 205.211 190.009 204.459 187.567 199.702 C
188.012 199.474 L
187.567 199.702 L
185.124 194.945 186.584 191.618 188.73 190.516 C
188.73 190.516 L
190.004 189.862 191.594 190.031 192.308 191.423 C
191.863 191.651 L
192.308 191.423 L
193.09 192.944 192.081 194.43 190.713 195.133 C
190.713 195.133 L
188.702 196.165 185.571 195.816 183.767 192.302 C
183.767 192.302 L
183.767 192.302 L
181.582 188.047 182.104 185.121 183.654 183.639 C
184.016 183.293 L
184.707 184.016 L
184.346 184.361 L
183.257 185.402 182.566 187.776 184.656 191.845 C
184.212 192.074 L
184.656 191.845 L
186.204 194.859 188.728 195.028 190.256 194.243 C
190.256 194.243 L
191.396 193.658 191.831 192.683 191.419 191.88 C
191.419 191.88 L
191.038 191.139 190.146 190.913 189.187 191.406 C
189.187 191.406 L
187.695 192.172 186.174 194.8 188.456 199.245 C
188.456 199.245 L
190.739 203.691 193.761 203.986 195.253 203.22 C
195.253 203.22 L
196.213 202.727 196.549 201.871 196.169 201.13 C
196.169 201.13 L
195.788 200.389 194.896 200.163 193.937 200.656 C
193.937 200.656 L
192.445 201.422 190.924 204.05 193.206 208.495 C
193.206 208.495 L
195.489 212.941 198.511 213.236 200.003 212.47 C
200.003 212.47 L
200.963 211.977 201.299 211.121 200.919 210.38 C
200.919 210.38 L
200.506 209.576 199.46 209.362 198.32 209.948 C
198.32 209.948 L
196.793 210.732 195.459 212.882 197.006 215.895 C
197.006 215.895 L
197.006 215.895 L
199.096 219.965 201.428 220.787 202.908 220.509 C
203.399 220.416 L
203.584 221.399 L
P
G
WC
WF
R N
N
93.502 359.955 M
93.502 359.955 L
93.691 357.857 95.446 355.704 99.642 355.004 C
99.725 355.498 L
99.642 355.004 L
103.295 354.396 105.331 356.678 105.697 358.869 C
105.697 358.869 L
105.953 360.409 105.376 362.159 103.658 362.446 C
103.662 362.445 L
103.658 362.446 L
102.075 362.709 100.983 361.471 100.743 360.029 C
100.743 360.029 L
100.353 357.688 101.999 354.612 106.842 353.804 C
106.81 353.81 L
106.842 353.804 L
111.686 352.997 114.241 355.373 114.631 357.715 C
114.631 357.714 L
114.871 359.157 114.241 360.682 112.658 360.946 C
112.79 360.923 L
112.658 360.946 L
111.075 361.209 109.983 359.971 109.743 358.529 C
109.743 358.529 L
109.353 356.188 110.999 353.112 115.842 352.304 C
115.81 352.31 L
115.842 352.304 L
120.686 351.497 123.241 353.873 123.631 356.214 C
123.631 356.214 L
123.871 357.657 123.241 359.182 121.658 359.446 C
121.79 359.423 L
121.658 359.446 L
119.939 359.732 118.825 358.264 118.569 356.724 C
118.569 356.724 L
118.204 354.533 119.39 351.713 123.042 351.104 C
123.125 351.598 L
123.042 351.104 L
127.239 350.405 129.597 351.873 130.457 353.796 C
130.66 354.253 L
129.747 354.66 L
129.543 354.204 L
128.927 352.825 127.111 351.44 123.207 352.091 C
123.207 352.091 L
123.207 352.091 L
120.152 352.6 119.272 354.859 119.555 356.56 C
119.555 356.56 L
119.773 357.867 120.586 358.61 121.493 358.459 C
121.575 358.952 L
121.493 358.459 L
122.333 358.319 122.831 357.498 122.644 356.379 C
122.644 356.379 L
122.367 354.712 120.445 352.551 116.007 353.291 C
115.925 352.798 L
116.007 353.291 L
111.569 354.031 110.452 356.698 110.73 358.365 C
110.73 358.365 L
110.916 359.484 111.653 360.099 112.493 359.959 C
112.575 360.452 L
112.493 359.959 L
113.333 359.819 113.831 358.998 113.644 357.879 C
113.644 357.879 L
113.367 356.212 111.445 354.051 107.007 354.791 C
106.925 354.298 L
107.007 354.791 L
102.569 355.531 101.452 358.198 101.73 359.865 C
101.73 359.865 L
101.916 360.984 102.653 361.599 103.493 361.459 C
103.575 361.952 L
103.493 361.459 L
104.4 361.308 104.928 360.341 104.71 359.034 C
104.71 359.034 L
104.427 357.333 102.862 355.482 99.807 355.991 C
99.807 355.991 L
99.807 355.991 L
95.903 356.641 94.634 358.541 94.498 360.045 C
94.453 360.543 L
93.457 360.453 L
P
G
WC
WF
R N
N
240.39 80.312 M
240.39 80.312 L
208.39 120.312 L
208.078 120.703 L
207.297 120.078 L
207.61 119.688 L
239.61 79.688 L
239.922 79.297 L
240.703 79.922 L
P
G
WC
WF
R N
N
222.438 101.952 M
224.0 96.798 L
224.937 98.829 L
227.123 99.297 L
P
G
WC
WF
R N
N
221.96 101.807 M
221.96 101.807 L
223.521 96.653 L
223.903 95.395 L
224.454 96.589 L
225.391 98.619 L
224.937 98.829 L
225.042 98.34 L
227.228 98.808 L
228.514 99.084 L
227.37 99.732 L
222.685 102.387 L
221.597 103.003 L
221.96 101.807 L
222.917 102.097 M
222.438 101.952 L
222.192 101.517 L
226.877 98.862 L
227.123 99.297 L
227.019 99.786 L
224.832 99.318 L
224.588 99.265 L
224.483 99.038 L
223.546 97.008 L
224.0 96.798 L
224.479 96.943 L
222.917 102.097 L
P
G
WC
WF
R N
N
207.61 120.312 M
207.61 120.312 L
175.61 80.312 L
175.297 79.922 L
176.078 79.297 L
176.39 79.688 L
208.39 119.688 L
208.703 120.078 L
207.922 120.703 L
P
G
WC
WF
R N
N
190.438 98.048 M
195.123 100.703 L
192.937 101.171 L
192.0 103.202 L
P
G
WC
WF
R N
N
190.685 97.613 M
190.685 97.613 L
195.37 100.268 L
196.514 100.916 L
195.228 101.192 L
193.042 101.66 L
192.937 101.171 L
193.391 101.381 L
192.454 103.411 L
191.903 104.605 L
191.521 103.347 L
189.96 98.193 L
189.597 96.997 L
190.685 97.613 L
190.192 98.483 M
190.438 98.048 L
190.917 97.903 L
192.479 103.057 L
192.0 103.202 L
191.546 102.992 L
192.483 100.962 L
192.588 100.735 L
192.832 100.682 L
195.019 100.214 L
195.123 100.703 L
194.877 101.138 L
190.192 98.483 L
P
G
WC
WF
R N
1.0 0.6 0.8  SC
N
240.0 288.0 M
240.0 292.418 225.673 296.0 208.0 296.0 C
190.327 296.0 176.0 292.418 176.0 288.0 C
176.0 283.582 190.327 280.0 208.0 280.0 C
225.673 280.0 240.0 283.582 240.0 288.0 C
P
G
WC
WF
R N
0.0 SG
N
240.5 288.0 M
240.5 288.0 L
240.5 293.045 225.33 296.5 208.0 296.5 C
208.0 296.0 L
208.0 296.5 L
190.67 296.5 175.5 293.045 175.5 288.0 C
176.0 288.0 L
175.5 288.0 L
175.5 282.955 190.67 279.5 208.0 279.5 C
208.0 280.0 L
208.0 279.5 L
225.33 279.5 240.5 282.955 240.5 288.0 C
240.0 288.0 L
240.5 288.0 L
239.5 288.0 M
239.5 288.0 L
239.5 284.209 226.016 280.5 208.0 280.5 C
208.0 280.5 L
189.984 280.5 176.5 284.209 176.5 288.0 C
176.5 288.0 L
176.5 291.791 189.984 295.5 208.0 295.5 C
208.0 295.5 L
226.016 295.5 239.5 291.791 239.5 288.0 C
P
G
WC
WF
R N
0.0 0.0 1.0  SC
N
296.289 336.408 M
296.289 336.408 L
294.563 337.632 291.743 337.669 288.375 334.882 C
288.694 334.496 L
288.375 334.882 L
285.48 332.486 285.857 329.429 287.279 327.711 C
287.279 327.711 L
288.271 326.512 289.964 325.812 291.3 326.918 C
290.981 327.304 L
291.3 326.918 L
292.529 327.936 292.319 329.56 291.391 330.681 C
291.391 330.681 L
289.872 332.517 286.433 333.275 282.575 330.082 C
282.894 329.696 L
282.575 330.082 L
278.716 326.888 278.818 323.369 280.337 321.533 C
280.337 321.533 L
281.265 320.412 282.821 319.901 284.05 320.918 C
283.731 321.304 L
284.05 320.918 L
285.279 321.936 285.069 323.56 284.141 324.681 C
284.141 324.681 L
282.622 326.517 279.183 327.275 275.325 324.082 C
275.644 323.696 L
275.325 324.082 L
271.466 320.888 271.568 317.369 273.087 315.533 C
273.087 315.533 L
274.015 314.412 275.571 313.901 276.8 314.918 C
276.481 315.304 L
276.8 314.918 L
278.137 316.024 277.766 317.819 276.774 319.017 C
276.774 319.017 L
275.352 320.735 272.42 321.678 269.525 319.282 C
269.569 319.318 L
269.525 319.282 L
266.156 316.494 265.666 313.717 266.545 311.792 C
266.753 311.337 L
267.663 311.753 L
267.455 312.208 L
266.828 313.58 267.006 315.899 270.162 318.511 C
269.844 318.896 L
270.162 318.511 L
272.599 320.528 274.905 319.707 276.004 318.379 C
276.004 318.379 L
276.842 317.366 276.868 316.272 276.163 315.689 C
276.163 315.689 L
276.163 315.689 L
275.51 315.149 274.572 315.306 273.857 316.17 C
273.857 316.17 L
272.782 317.47 272.41 320.371 275.962 323.311 C
275.962 323.311 L
275.962 323.311 L
279.515 326.251 282.295 325.343 283.371 324.044 C
283.371 324.044 L
284.086 323.179 284.065 322.229 283.413 321.689 C
283.413 321.689 L
283.413 321.689 L
282.76 321.149 281.822 321.306 281.107 322.17 C
281.107 322.17 L
280.032 323.47 279.66 326.371 283.212 329.311 C
283.212 329.311 L
283.212 329.311 L
286.765 332.251 289.545 331.343 290.621 330.044 C
290.621 330.044 L
291.336 329.179 291.315 328.229 290.663 327.689 C
290.663 327.689 L
290.663 327.689 L
289.958 327.105 288.888 327.335 288.049 328.348 C
288.049 328.348 L
286.951 329.675 286.576 332.095 289.012 334.111 C
289.088 334.174 L
289.012 334.111 L
292.169 336.723 294.48 336.465 295.711 335.592 C
296.119 335.303 L
296.697 336.119 L
P
G
WC
WF
R N
N
119.732 231.578 M
119.732 231.578 L
121.511 230.446 124.298 230.529 127.443 233.44 C
127.719 233.696 L
127.443 233.44 L
130.17 235.966 129.615 238.979 128.104 240.611 C
128.104 240.611 L
127.045 241.755 125.309 242.367 124.032 241.185 C
124.372 240.818 L
124.032 241.185 L
122.857 240.096 123.165 238.478 124.157 237.407 C
124.157 237.407 L
125.771 235.664 129.221 235.086 132.843 238.44 C
132.572 238.189 L
132.843 238.44 L
136.465 241.794 136.154 245.277 134.54 247.02 C
134.54 247.02 L
133.548 248.092 131.958 248.524 130.782 247.435 C
131.122 247.068 L
130.782 247.435 L
129.607 246.346 129.915 244.728 130.907 243.657 C
130.907 243.657 L
132.521 241.914 135.971 241.336 139.593 244.69 C
139.253 245.057 L
139.593 244.69 L
143.215 248.044 142.904 251.527 141.29 253.27 C
141.29 253.27 L
140.298 254.342 138.708 254.774 137.532 253.685 C
137.872 253.318 L
137.532 253.685 L
136.255 252.503 136.733 250.726 137.792 249.581 C
137.792 249.581 L
139.303 247.95 142.265 247.164 144.993 249.69 C
144.653 250.057 L
144.993 249.69 L
148.137 252.601 148.434 255.374 147.441 257.235 C
147.206 257.676 L
146.324 257.206 L
146.559 256.765 L
147.269 255.433 147.244 253.137 144.313 250.424 C
144.38 250.485 L
144.313 250.424 L
142.028 248.308 139.697 248.996 138.526 250.261 C
138.526 250.261 L
137.627 251.231 137.538 252.327 138.212 252.951 C
138.212 252.951 L
138.836 253.529 139.787 253.421 140.556 252.591 C
140.556 252.591 L
141.704 251.352 142.236 248.501 138.913 245.424 C
138.913 245.424 L
135.59 242.347 132.789 243.097 131.641 244.336 C
131.641 244.336 L
130.872 245.167 130.838 246.123 131.462 246.701 C
131.462 246.701 L
132.086 247.279 133.037 247.171 133.806 246.341 C
133.806 246.341 L
134.954 245.102 135.486 242.251 132.163 239.174 C
132.503 238.807 L
132.163 239.174 L
128.84 236.097 126.039 236.847 124.891 238.086 C
124.891 238.086 L
124.122 238.917 124.088 239.874 124.712 240.451 C
124.712 240.451 L
125.386 241.075 126.472 240.902 127.37 239.932 C
127.37 239.932 L
128.541 238.667 129.048 236.29 126.763 234.174 C
127.103 233.807 L
126.763 234.174 L
123.832 231.46 121.542 231.611 120.268 232.422 C
119.847 232.69 L
119.31 231.847 L
P
G
WC
WF
R N
0.2 1.0 0.2  SC
N
368.0 265.5 M
368.0 265.5 L
331.107 265.5 320.97 258.693 301.1 245.242 C
301.1 245.242 L
299.217 243.967 297.257 242.641 295.168 241.248 C
293.92 240.416 L
295.584 237.92 L
296.832 238.752 L
298.925 240.147 300.905 241.487 302.782 242.758 C
302.782 242.758 L
322.304 255.974 331.864 262.5 368.0 262.5 C
369.5 262.5 L
369.5 265.5 L
P
G
WC
WF
R N
N
286.939 257.061 M
286.939 257.061 L
278.824 248.945 277.974 241.904 281.939 237.939 C
281.939 237.939 L
285.627 234.251 292.583 234.461 297.061 238.939 C
298.121 240.0 L
296.0 242.121 L
294.939 241.061 L
291.417 237.539 286.373 237.749 284.061 240.061 C
284.061 240.061 L
282.026 242.096 281.176 247.055 289.061 254.939 C
290.121 256.0 L
288.0 258.121 L
P
G
WC
WF
R N
N
289.061 254.939 M
289.061 254.939 L
292.007 257.885 292.528 261.041 290.004 263.566 C
290.004 263.566 L
281.798 271.771 239.702 270.314 226.632 257.245 C
226.632 257.245 L
224.085 254.698 222.5 251.613 222.5 248.0 C
222.5 246.5 L
225.5 246.5 L
225.5 248.0 L
225.5 250.648 226.637 253.007 228.753 255.123 C
228.753 255.123 L
240.954 267.324 281.13 268.197 287.883 261.444 C
287.883 261.444 L
288.802 260.525 289.2 259.321 286.939 257.061 C
285.879 256.0 L
288.0 253.879 L
P
G
WC
WF
R N
N
222.507 248.149 M
222.507 248.149 L
214.542 168.494 214.28 111.415 247.1 86.8 C
248.3 85.9 L
250.1 88.3 L
248.9 89.2 L
217.72 112.585 217.458 167.506 225.493 247.851 C
225.642 249.343 L
222.657 249.642 L
P
G
WC
WF
R N
N
169.171 79.063 M
169.171 79.063 L
199.663 117.177 202.026 178.344 193.999 184.765 C
193.999 184.765 L
193.602 185.082 193.134 185.33 192.598 185.44 C
192.597 185.44 L
192.401 185.48 192.201 185.5 192.0 185.5 C
190.5 185.5 L
190.5 182.5 L
192.0 182.5 L
191.999 182.5 191.998 182.5 191.997 182.5 C
191.997 182.5 L
191.99 182.502 192.032 182.496 192.125 182.422 C
192.125 182.422 L
197.836 177.853 197.361 119.102 166.829 80.937 C
165.892 79.766 L
168.234 77.892 L
P
G
WC
WF
R N
N
190.939 185.061 M
190.939 185.061 L
182.099 176.22 177.039 175.975 175.461 177.553 C
175.461 177.553 L
173.892 179.121 173.599 183.844 177.342 191.329 C
178.012 192.671 L
175.329 194.012 L
174.658 192.671 L
170.975 185.304 170.149 178.622 173.34 175.431 C
173.34 175.431 L
177.259 171.512 184.752 174.631 193.061 182.939 C
194.121 184.0 L
192.0 186.121 L
P
G
WC
WF
R N
N
153.061 329.061 M
153.061 329.061 L
141.658 340.464 126.344 343.948 110.389 347.62 C
110.389 347.62 L
103.187 349.277 95.825 350.973 88.474 353.423 C
87.051 353.897 L
86.103 351.051 L
87.526 350.577 L
95.034 348.074 102.534 346.349 109.716 344.696 C
109.716 344.696 L
125.843 340.985 140.249 337.63 150.939 326.939 C
152.0 325.879 L
154.121 328.0 L
P
G
WC
WF
R N
N
88.671 353.342 M
88.671 353.342 L
83.533 355.91 83.713 357.85 84.305 359.033 C
84.305 359.033 L
86.322 363.067 96.111 366.456 96.475 366.577 C
96.246 366.52 L
96.246 366.52 L
96.654 366.65 L
96.654 366.65 L
98.004 367.305 L
96.695 370.004 L
95.346 369.35 L
95.345 369.35 L
95.753 369.479 L
95.753 369.479 L
95.524 369.423 L
95.732 369.492 84.328 365.787 81.621 360.374 C
81.621 360.375 L
79.842 356.816 81.8 353.423 87.329 350.658 C
88.671 349.988 L
90.012 352.671 L
P
G
WC
WF
R N
N
96.0 366.5 M
96.0 366.5 L
101.066 366.5 107.142 373.227 107.142 382.654 C
107.142 382.654 L
107.142 392.951 100.16 406.709 77.819 421.257 C
76.562 422.076 L
74.925 419.562 L
76.181 418.743 L
98.13 404.451 104.142 391.491 104.142 382.654 C
104.142 382.654 L
104.142 374.063 98.694 369.5 96.0 369.5 C
94.5 369.5 L
94.5 366.5 L
P
G
WC
WF
R N
N
168.0 265.5 M
168.0 265.5 L
64.0 265.5 L
62.5 265.5 L
62.5 262.5 L
64.0 262.5 L
168.0 262.5 L
169.5 262.5 L
169.5 265.5 L
P
G
WC
WF
R N
N
230.577 399.526 M
230.577 399.526 L
238.474 375.834 238.474 344.166 230.577 320.474 C
230.103 319.051 L
232.949 318.103 L
233.423 319.526 L
241.526 343.834 241.526 376.166 233.423 400.474 C
232.949 401.897 L
230.103 400.949 L
P
G
WC
WF
R N
N
318.829 432.937 M
318.829 432.937 L
302.791 412.89 294.765 400.851 288.752 391.832 C
288.752 391.832 L
285.146 386.422 282.301 382.157 278.893 377.897 C
278.893 377.897 L
276.625 375.062 274.102 372.223 270.939 369.061 C
269.879 368.0 L
272.0 365.879 L
273.061 366.939 L
276.298 370.176 278.895 373.098 281.235 376.023 C
281.235 376.023 L
284.739 380.403 287.655 384.778 291.248 390.168 C
291.248 390.168 L
297.236 399.149 305.209 411.11 321.171 431.063 C
322.108 432.234 L
319.766 434.108 L
P
G
WC
WF
R N
N
270.8 368.9 M
270.8 368.9 L
262.644 358.026 259.452 357.299 258.99 357.646 C
258.99 357.646 L
256.125 359.795 261.862 382.089 273.248 399.168 C
274.08 400.416 L
271.584 402.08 L
270.752 400.832 L
260.228 385.046 251.556 359.472 257.19 355.246 C
257.19 355.246 L
260.641 352.658 266.221 357.795 273.2 367.1 C
274.1 368.3 L
271.7 370.1 L
P
G
WC
WF
R N
N
313.342 336.671 M
313.342 336.671 L
307.732 347.891 295.226 348.04 281.485 341.17 C
281.485 341.17 L
273.147 337.0 264.018 330.14 254.939 321.061 C
253.879 320.0 L
256.0 317.879 L
257.061 318.939 L
265.982 327.86 274.853 334.5 282.827 338.486 C
282.827 338.486 L
296.274 345.21 306.268 344.109 310.658 335.329 C
311.329 333.988 L
314.012 335.329 L
P
G
WC
WF
R N
N
135.329 233.342 M
135.329 233.342 L
127.658 229.506 121.957 229.5 116.0 229.5 C
116.0 229.5 L
109.957 229.5 103.658 229.506 95.329 225.342 C
93.988 224.671 L
95.329 221.988 L
96.671 222.658 L
104.342 226.494 110.043 226.5 116.0 226.5 C
116.0 226.5 L
122.043 226.5 128.342 226.494 136.671 230.658 C
138.012 231.329 L
136.671 234.012 L
P
G
WC
WF
R N
1.0 SG
N
8.0 71.5 M
8.0 71.5 L
408.0 71.5 L
408.5 71.5 L
408.5 72.0 L
408.5 440.0 L
408.5 440.5 L
408.0 440.5 L
8.0 440.5 L
7.5 440.5 L
7.5 440.0 L
7.5 72.0 L
7.5 71.5 L
8.0 71.5 L
8.0 72.5 M
8.0 72.0 L
8.5 72.0 L
8.5 440.0 L
8.0 440.0 L
8.0 439.5 L
408.0 439.5 L
408.0 440.0 L
407.5 440.0 L
407.5 72.0 L
408.0 72.0 L
408.0 72.5 L
8.0 72.5 L
P
G
WC
WF
R N
pgSave restore
showpage
%%EOF
